
{
  "css": {
      "annolet" : "https://gl.githack.com/renarration/web-annotation/raw/develop/src/annolet-bookmarklet/annolet/css/annolet.css",
      "Theme1"  : "https://gl.githack.com/renarration/web-annotation/raw/develop/src/annolet-bookmarklet/annolet/css/switch1.css",
      "Theme2"  : "https://gl.githack.com/renarration/web-annotation/raw/develop/src/annolet-bookmarklet/annolet/css/switch2.css",
      "Theme3"  : "https://gl.githack.com/renarration/web-annotation/raw/develop/src/annolet-bookmarklet/annolet/css/switch3.css"
   },

   "annolet-gui" : "https://gl.githack.com/renarration/web-annotation/raw/develop/src/annolet-bookmarklet/annolet/annolet-gui.js", 
   
   "api" : {
      "phonetics-trans" : "http://127.0.0.1:5000/phonetic-trans",
      "lang-trans" : "http://127.0.0.1:5000/language-translive",
      "curncy-trans" : "http://127.0.0.1:5000/currency-trans"
   }
}
